<?xml version="1.0" encoding="UTF-8"?>
<!DOCTYPE svg PUBLIC "-//W3C//DTD SVG 1.1//EN" "http://www.w3.org/Graphics/SVG/1.1/DTD/svg11.dtd">
<!-- Creator: CorelDRAW X7 -->
<svg xmlns="http://www.w3.org/2000/svg" xml:space="preserve" width="33px" height="37px" version="1.1" style="shape-rendering:geometricPrecision; text-rendering:geometricPrecision; image-rendering:optimizeQuality; fill-rule:evenodd; clip-rule:evenodd"
viewBox="0 0 33000 37695"
 xmlns:xlink="http://www.w3.org/1999/xlink">
 <defs>
  <style type="text/css">
   <![CDATA[
    .fil0 {fill:white}
   ]]>
  </style>
 </defs>
 <g id="Слой_x0020_1">
  <metadata id="CorelCorpID_0Corel-Layer"/>
  <g id="_979496720">
   <path class="fil0" d="M24424 15608l2140 0c456,1285 1683,2209 3123,2209 1827,0 3313,-1487 3313,-3313 0,-1440 -923,-2667 -2209,-3124 0,-1052 0,-9106 0,-10276 0,-610 -494,-1104 -1104,-1104l-8909 0c-609,0 -1104,494 -1104,1104l0 6774c0,609 495,1104 1104,1104l7805 0 0 2398c-940,334 -1686,1079 -2019,2019l-2140 0c-3045,0 -5521,2477 -5521,5522 0,3045 2476,5522 5521,5522l3054 0c1827,0 3313,1486 3313,3313 0,1826 -1486,3313 -3313,3313l-8168 0c368,-1037 568,-2152 568,-3313 0,-5480 -4458,-9939 -9939,-9939 -5498,0 -9939,4378 -9939,9865 0,5521 4459,10013 9939,10013 3439,0 6475,-1756 8260,-4418l9279 0c3045,0 5522,-2477 5522,-5521 0,-3045 -2477,-5522 -5522,-5522l-3054 0c-1827,0 -3313,-1486 -3313,-3313 0,-1827 1486,-3313 3313,-3313zm-2541 -13399l6700 0 0 4564 -6700 0 0 -4564zm7804 11190c609,0 1104,496 1104,1105 0,608 -495,1104 -1104,1104 -609,0 -1104,-496 -1104,-1104 0,-609 495,-1105 1104,-1105zm-19748 22087c-4262,0 -7730,-3501 -7730,-7804 0,-4222 3468,-7657 7730,-7657 4263,0 7731,3468 7731,7731 0,4262 -3468,7730 -7731,7730z"/>
   <path class="fil0" d="M9939 22234c-3044,0 -5521,2477 -5521,5522 0,3044 2477,5521 5521,5521 3045,0 5522,-2477 5522,-5521 0,-3045 -2477,-5522 -5522,-5522zm0 8835c-1826,0 -3313,-1487 -3313,-3313 0,-1827 1487,-3313 3313,-3313 1827,0 3313,1486 3313,3313 0,1826 -1486,3313 -3313,3313z"/>
   <path class="fil0" d="M11044 27756c0,610 -495,1104 -1105,1104 -610,0 -1104,-494 -1104,-1104 0,-610 494,-1105 1104,-1105 610,0 1105,495 1105,1105z"/>
  </g>
 </g>
</svg>
