<?xml version="1.0" encoding="UTF-8"?>
<!DOCTYPE svg PUBLIC "-//W3C//DTD SVG 1.1//EN" "http://www.w3.org/Graphics/SVG/1.1/DTD/svg11.dtd">
<!-- Creator: CorelDRAW X7 -->
<svg xmlns="http://www.w3.org/2000/svg" xml:space="preserve" width="277px" height="342px" version="1.1" style="shape-rendering:geometricPrecision; text-rendering:geometricPrecision; image-rendering:optimizeQuality; fill-rule:evenodd; clip-rule:evenodd"
viewBox="0 0 140926 174123"
 xmlns:xlink="http://www.w3.org/1999/xlink">
 <defs>
  <style type="text/css">
   <![CDATA[
    .fil0 {fill:#FEFEFE}
    .fil1 {fill:#FEFEFE;fill-rule:nonzero}
   ]]>
  </style>
   <mask id="id0">
  <linearGradient id="id1" gradientUnits="userSpaceOnUse" x1="54731.3" y1="103192" x2="2275.64" y2="103189">
   <stop offset="0" style="stop-opacity:1; stop-color:white"/>
   <stop offset="1" style="stop-opacity:0; stop-color:white"/>
  </linearGradient>
    <rect style="fill:url(#id1)" x="29275" y="69510" width="30723" height="47642"/>
   </mask>
   <mask id="id2">
  <linearGradient id="id3" gradientUnits="userSpaceOnUse" x1="65835" y1="106481" x2="40401.2" y2="106481">
   <stop offset="0" style="stop-opacity:1; stop-color:white"/>
   <stop offset="0.639216" style="stop-opacity:-47.1882; stop-color:white"/>
   <stop offset="1" style="stop-opacity:0; stop-color:white"/>
  </linearGradient>
    <rect style="fill:url(#id3)" x="45762" y="69209" width="14829" height="48293"/>
   </mask>
   <mask id="id4">
  <linearGradient id="id5" gradientUnits="userSpaceOnUse" x1="97252" y1="106078" x2="55777.5" y2="106078">
   <stop offset="0" style="stop-opacity:1; stop-color:white"/>
   <stop offset="1" style="stop-opacity:0; stop-color:white"/>
  </linearGradient>
    <rect style="fill:url(#id5)" x="59540" y="69616" width="32988" height="47642"/>
   </mask>
   <mask id="id6">
  <linearGradient id="id7" gradientUnits="userSpaceOnUse" x1="87600.5" y1="104935" x2="45816.7" y2="104933">
   <stop offset="0" style="stop-opacity:1; stop-color:white"/>
   <stop offset="1" style="stop-opacity:0; stop-color:white"/>
  </linearGradient>
    <rect style="fill:url(#id7)" x="59644" y="69767" width="19556" height="47492"/>
   </mask>
 </defs>
 <g id="Слой_x0020_1">
  <metadata id="CorelCorpID_0Corel-Layer"/>
  <path class="fil0" d="M2578 117035l60492 0 -4 -54 -19171 -58 -14392 0 5322 -8296 -12419 0 37106 -57851 39884 57851 -12890 0 5793 8402 -10726 0 0 1 -17026 5 54679 0c-18674,-27626 -40885,-56137 -59558,-83765 -20209,27628 -36882,56139 -57090,83765z"/>
  <path class="fil0" d="M140926 116331l-12141 -67 -67790 -95939 5937 -5700 73994 101706zm-81009 -111395l-6354 6870 -1776 -2750 6582 -5738 1548 1618zm13465 3391c-13143,10010 -30053,24259 -36028,47808 -4120,-17526 20926,-51148 30157,-56135l5871 8327z"/>
  <polygon class="fil0" style="mask:url(#id0)" points="29503,116923 59768,69739 46292,116923 "/>
  <polygon class="fil0" style="mask:url(#id2)" points="46292,116923 59768,69739 60061,116972 "/>
  <polygon class="fil0" style="mask:url(#id4)" points="78971,117029 59768,69845 92299,117029 "/>
  <polygon class="fil0" style="mask:url(#id6)" points="60061,116972 59872,69995 78971,117029 "/>
  <path class="fil1" d="M39744 146935c-1605,-9797 -9299,-14779 -18875,-14779 -12898,0 -20869,8746 -20869,21477 0,13894 9134,20490 19319,20490 6255,0 9852,-2334 12011,-4881l498 3820 8414 0 0 -21920 -17879 0 0 8635 5757 0c-665,2768 -4041,4595 -6698,4595 -6587,0 -8359,-5149 -8359,-10794 0,-7030 2436,-11680 7584,-11680 3377,0 5757,1771 6698,5037l12399 0zm7971 -13727l0 39854 11735 0 0 -13506c0,-3211 -443,-8580 -830,-12068l110 0 7252 25574 9078 0 7251 -25574 111 0c-498,4595 -830,8913 -830,13396l0 12178 11735 0 0 -39854 -15777 0 -7029 24853 -7030 -24853 -15776 0zm91554 15222c-1051,-10241 -7860,-16274 -20037,-16274 -11126,0 -19873,8026 -19873,20923 0,12953 7972,21044 21145,21044 10518,0 17880,-6209 19042,-16504l-12565 0c-498,3819 -2491,6753 -6698,6753 -6642,0 -7860,-5259 -7860,-10850 0,-7694 2768,-11624 7362,-11624 4097,0 6698,2380 7085,6532l12399 0z"/>
 </g>
</svg>
